{
  "color-primary-100": "#D9D8FE",
  "color-primary-200": "#B3B1FE",
  "color-primary-300": "#8E8BFE",
  "color-primary-400": "#716EFD",
  "color-primary-500": "#423EFD",
  "color-primary-600": "#302DD9",
  "color-primary-700": "#211FB6",
  "color-primary-800": "#151392",
  "color-primary-900": "#0D0B79",
  "color-success-100": "#F0FCD2",
  "color-success-200": "#DEFAA6",
  "color-success-300": "#C3F177",
  "color-success-400": "#A7E353",
  "color-success-500": "#7FD121",
  "color-success-600": "#63B318",
  "color-success-700": "#4B9610",
  "color-success-800": "#36790A",
  "color-success-900": "#266406",
  "color-info-100": "#DAF4FE",
  "color-info-200": "#B5E7FD",
  "color-info-300": "#90D3FB",
  "color-info-400": "#73C0F7",
  "color-info-500": "#46A1F2",
  "color-info-600": "#337DD0",
  "color-info-700": "#235EAE",
  "color-info-800": "#16428C",
  "color-info-900": "#0D2E74",
  "color-warning-100": "#FFF6D8",
  "color-warning-200": "#FFEBB2",
  "color-warning-300": "#FFDD8B",
  "color-warning-400": "#FFCF6F",
  "color-warning-500": "#FFB83F",
  "color-warning-600": "#DB942E",
  "color-warning-700": "#B7731F",
  "color-warning-800": "#935614",
  "color-warning-900": "#7A400C",
  "color-danger-100": "#FFE7D8",
  "color-danger-200": "#FFC9B2",
  "color-danger-300": "#FFA58B",
  "color-danger-400": "#FF826F",
  "color-danger-500": "#FF493F",
  "color-danger-600": "#DB2E33",
  "color-danger-700": "#B71F31",
  "color-danger-800": "#93142D",
  "color-danger-900": "#7A0C2B"
}